{
  "version": "1.0.0",

  "dependencies": {
    "NETStandard.Library": "1.6.0"
  },

  "frameworks": {
    "netstandard1.5": {
      "imports": "dnxcore50"
    }
  },

  "tooling": {
    "defaultNamespace": "MathDemo"
  }
}
